<?xml version="1.0" encoding="UTF-8"?>
<svg width="63px" height="16px" viewBox="0 0 63 16" version="1.1" xmlns="http://www.w3.org/2000/svg" xmlns:xlink="http://www.w3.org/1999/xlink">
    <!-- Generator: Sketch 50 (54983) - http://www.bohemiancoding.com/sketch -->
    <title>STYFI</title>
    <desc>Created with Sketch.</desc>
    <defs></defs>
    <g id="Designs" stroke="none" stroke-width="1" fill="none" fill-rule="evenodd" font-family=".SFNSDisplay, .SF NS Display" font-size="20" font-weight="normal" letter-spacing="3">
        <g id="Home-Page" transform="translate(-173.000000, -83.000000)" fill="#000000">
            <g id="Header" transform="translate(0.000000, 64.000000)">
                <text id="STYFI">
                    <tspan x="173" y="34">STYF</tspan>
                    <tspan x="232.744141" y="34">I</tspan>
                </text>
            </g>
        </g>
    </g>
</svg>